{
  "en": {
    "header": {
      "links": [
        { "to": "/?to=meta", "title": "META" },
        { "to": "/?to=team", "title": "TEAM" },
        { "to": "/?to=mint", "title": "MINT" },
        { "to": "/?to=community", "title": "COMMUNITY" }
      ]
    },
    "homepage": {
      "side": "Company + Community + Blockchain + Metaverse",
      "heading": {
        "social": [
          { "icon": "Opensea", "link": "https://opensea.io/collection/lion-dao" },
          { "icon": "Discord", "link": "https://discord.gg/cy3HNnSt8b" },
          { "icon": "Twitter", "link": "https://twitter.com/liondaonft" },
          { "icon": "Instagram", "link": "https://www.instagram.com/liondaometa/" }
        ]
      },
      "intro":  [
        {
          "icon": "/images/icon-crawl.svg",
          "content": "\"LIONDAO NFT\n\nTaiwan’s very first metaverse enterprise community with high quality holders and massive enterprise resources.\n\nCorporate Innovation X Metaverse X Digital Transformation.\n\nMore than 95% are CEO or senior level managers across digital and traditional industries. In the future, additional metaverse and NFT developments will occur to create the first Social DAO with metaverse industry consensus and incubate MetaStar for future impact.\""
        },
        {
          "icon": "/images/icon-crawl.svg",
          "content": "\"Establish an enterprise metaverse college for driving cross-industry AMA exchanges and transformations, promote NFT application landings and interdisciplinary collaborations to maximize the landings of NFT applications! Build an enterprise community with consensus and influence.\""
        },
        {
          "icon": "/images/icon-crawl.svg",
          "content": "\"In the Web 3.0 era, industries must address the market by upgrading their brands, performing digital transformations, and adopting new business models based on community benefit, consensus, and sharing to establish a circular consumer ecosystem. This allows enterprise self-media to embrace new business models, build an enterprise new media creative platform, and venture together into the metaverse.\""
        }
      ],
      "story": [
        {
          "photo": "/images/story-1.png",
          "content": "WHAT IS THIS?"
        },
        {
          "photo": "/images/story-2.png",
          "content": "I HEARD A VOICE IS CALLING US.\nLOOK! THERE IS A GATE.\nBUDDIES, LET'S FIND OUT."
        },
        {
          "photo": "/images/story-3.png",
          "content": "WHAT...?\nWHAT HAPPENED TO ME?"
        },
        {
          "photo": "/images/story-4.png",
          "content": "HERE WE ARE, LIONDAO, A WHOLE NEW WORLD."
        }
      ],
      "team": [
        {
          "name": "Boss Lee",
          "title": "Founder",
          "image": "/images/Team/1.jpg",
          "cover": "/images/Team/1.jpg",
          "content": "・Enterprise PR crisis management and marketing strategy\n・Chief Consultant\n・Senior mediaperson in Taiwan\n・Strategic Investment Consultant, Media and Broadcasting Industry Transformation"
        },
        {
          "name": "Hans Chen",
          "title": "Founder",
          "image": "/images/Team/2.jpg",
          "cover": "/images/Team/2.jpg",
          "content": "・CEO of Guolea\n・Chief Consultant for interdisciplinary brand counseling and strategic application of blockchain\n・Known as “Brand Doctor” within the industry"
        },
        {
          "name": "Lionel Chiang",
          "title": "Founder",
          "image": "/images/Team/3.jpg",
          "cover": "/images/Team/3.jpg",
          "content": "・Chief Consultant of Strategic Development in the Blockchain Industry\n・Industrialist managing businesses across industries"
        },
        {
          "name": "Kenneth Kao",
          "title": "Founder",
          "image": "/images/Team/4.jpg",
          "cover": "/images/Team/4.jpg",
          "content": "・Founder of SSTrade\n・Founder of Idealism Capital\n・NFT Evangelist"
        },
        {
          "name": "Ben Yen",
          "title": "Team",
          "image": "/images/Team/5.jpg",
          "cover": "/images/Team/5.jpg",
          "content": "Brand/IP licensing and access development"
        },
        {
          "name": "Carol Tzeng",
          "title": "Team",
          "image": "/images/Team/6.jpg",
          "cover": "/images/Team/6.jpg",
          "content": "Media and international community management"
        },
        {
          "name": "JenChiang Wang",
          "title": "Team",
          "image": "/images/Team/7.jpg",
          "cover": "/images/Team/7.jpg",
          "content": "Avant-garde visual artist"
        },
        {
          "name": "Anna Lin",
          "title": "Team",
          "image": "/images/Team/20.jpg",
          "cover": "/images/Team/20.jpg",
          "content": "・YOCO Collection CEO"
        },
        {
          "name": "Alison Chen",
          "title": "Team",
          "image": "/images/Team/8.jpg",
          "cover": "/images/Team/8.jpg",
          "content": "Management of crypto and Discord communities"
        },	
        {
          "name": "HY Lin",
          "title": "Team",
          "image": "/images/Team/9.jpg",
          "cover": "/images/Team/9.jpg",
          "content": "・Quantitative Trading\n・Cryptocurrency Market Analysis\n・Macroeconomic Observations"
        },
        {
          "name": "Frank Fu",
          "title": "Team",
          "image": "/images/Team/17.jpg",
          "cover": "/images/Team/17.jpg",
          "content": "・Community relationship management"
        },		
		    {
          "name": "James C.F. Huang",
          "title": "MetaLion",
          "image": "/images/Team/11.jpg",
          "cover": "/images/Team/11.jpg",
          "content": "・Chairman of Taiwan External Trade Development Council (TAITRA)"
        },
        {
          "name": "Simon Koh",
          "title": "MetaLion",
          "image": "/images/Team/12.jpg",
          "cover": "/images/Team/12.jpg",
          "content": "・Founder of AMT Asia-Pacific Martech Transformation Alliance Association\n・Founder of Big Data Play Brand\n・Brand Director of Brand Accelerator at General Chamber of Commerce of the Republic of China\n・Brand General Manager at Wowprime (12 years)\n・Head of Business and Planning at Ogilvy (12 years)"
        },
        {
          "name": "Maclin",
          "title": "MetaLion",
          "image": "/images/Team/13.jpg",
          "cover": "/images/Team/13.jpg",
          "content": "・General Manager of Six Star Gears - Yieh Chen Machinery Co., Ltd\n・General Manager of Allstar Precision Machinery Co., Ltd\n・Ombudsman of King Ray Yeng Industry Co., Ltd\n・2019-2020 Zone Director of zone 3642 for Rotary International"
        },
        {
          "name": "Eason Huang",
          "title": "MetaLion",
          "image": "/images/Team/14.jpg",
          "cover": "/images/Team/14.jpg",
          "content": "・Director and co-founder of LaMorning Co., Ltd\n・Founding president of Pingtung Head Manager Alliance\n・9th Managing Director of Association of Chain and Franchise Promotion, Taiwan\n・4th President of Association of Chain and Franchise Promotion, Taiwan, Kaohsiung Branch"
        },
        {
          "name": "David Pan",
          "title": "MetaLion",
          "image": "/images/Team/15.jpg",
          "cover": "/images/Team/15.jpg",
          "content": "・Founder of Ace Exchange\n・Founder of ABA Asia Blockchain Accelerator\n・Founder of Lead Capital, Singapore"
        },
        {
          "name": "Toriii Studio",
          "title": "MetaLion",
          "image": "/images/Team/16.jpg",
          "cover": "/images/Team/16.jpg",
          "content": "・Professional development team for NFT technologies\n・Responsible for connecting the front/back end, metadata generation, and customization design of smart contracts\n・Provides low gas contracts and technical support for security audits"
        },
        {
          "name": "Michael Wang",
          "title": "MetaLion",
          "image": "/images/Team/18.jpg",
          "cover": "/images/Team/18.jpg",
          "content": "・Presiding Attorney/Director of Chien Yeh Law Offices\n・Consultant for General Chamber of Commerce of the Republic of China\n・Legal advisory committee of the National Immigration Agency, Ministry of the Interior\n・Legal advisor of Penghu County Government Research project organizer of Taiwan Power Company"
        },
        {
          "name": "Gary Liu",
          "title": "MetaLion",
          "image": "/images/Team/19.jpg",
          "cover": "/images/Team/19.jpg",
          "content": "・XING Biotechnology Co., Ltd.\n・Star Mei Medical Beauty Clinic Founder "
        },
        {
          "name": "Rick Mao",
          "title": "MetaLion",
          "image": "/images/Team/21.jpg",
          "cover": "/images/Team/21.jpg",
          "content": "・SKM Park General Manager(current)\n・TOC Consulting Limited\n・Vice President, Leasing / General Manager, Taiwan(current)\n・Hysan Development Company Limited, Hong Kong General Manager, Business Development, Investment & Development"
        },
        {
          "name": "Jennifer Shen",
          "title": "MetaLion",
          "image": "/images/Team/22.jpg",
          "cover": "/images/Team/22.jpg",
          "content": "“Winner of 13 Golden Bell Awards”\n・Voted by the Taiwanese public as the most popular news anchor with the most professional image.\n・Held the position of nightly news anchor at CTV for 22 years\n・Winner of 13 Golden Bell Awards\n・Host of “Jennifer Shen Life Show”, “Global Perspective from Taiwan”, and “Jennifer Shen’s Newsroom”\n・Director of interactive English teaching group LiveABC\n・Current host of “Jennifer Shen’s Focus on Taiwan” at Voice of IC\n・Current host of podcast “Jennifer Shen’s Women’s Talk”"
        },
        {
          "name": "Henry Yen",
          "title": "MetaLion",
          "image": "/images/Team/23.jpg",
          "cover": "/images/Team/23.jpg",
          "content": "・Potato Media CEO/CTO"
        },
        {
          "name": "Henry Sun",
          "title": "MetaLion",
          "image": "/images/Team/24.jpg",
          "cover": "/images/Team/24.jpg",
          "content": "・Dudoo Founder & CEO"
        },
        {
          "name": "JianHong Guo",
          "title": "MetaLion",
          "image": "/images/Team/28.jpg",
          "cover": "/images/Team/28.jpg",
          "content": "Known as the “Emperor of TV” in Taiwan’s broadcasting circles\n・Transworld Television Production Company Ltd. Founder and Chairman"
        },
        {
          "name": "Unme Xie",
          "title": "MetaLion",
          "image": "/images/Team/30.jpg",
          "cover": "/images/Team/30.jpg",
          "content": "“King of MIT Backpacks”\n・UNME Children’s Backpacks"
        },
        {
          "name": "K.T.Hao",
          "title": "MetaLion",
          "image": "/images/Team/31.jpg",
          "cover": "/images/Team/31.jpg",
          "content": "“The bridge linking Taiwan’s picture books with the international stage”\n・Publisher of Grimm Press Ltd. \n・Chairman of cite Culture & Arts Foundation"
        },
        {
          "name": "Tony Huang",
          "title": "MetaLion",
          "image": "/images/Team/32.jpg",
          "cover": "/images/Team/32.jpg",
          "content": "“Record label in Taiwan”\n・Chairman of Forward Music Co., Ltd."
        },
        {
          "name": "Kunlian Wang",
          "title": "MetaLion",
          "image": "/images/Team/33.jpg",
          "cover": "/images/Team/33.jpg",
          "content": "“The #1 brand of Taiwan’s Sun Moon Lake Black Tea”\n・Chairman of HOHOCHA"
        },
        {
          "name": "Ray Wang",
          "title": "MetaLion",
          "image": "/images/Team/34.jpg",
          "cover": "/images/Team/34.jpg",
          "content": "・President of Electric Power Technology Limited (TPEx 2642)\n・Chairman of Clean Solution Lifescience Technology Limited"
        },
        {
          "name": "Andy Jiang",
          "title": "MetaLion",
          "image": "/images/Team/35.jpg",
          "cover": "/images/Team/35.jpg",
          "content": "・Founder of OOPS"
        },
        {
          "name": "Dao Dao",
          "title": "MetaLion",
          "image": "/images/Team/36.jpg",
          "cover": "/images/Team/36.jpg",
          "content": "“Crypto Goddess”\n・Top 10 information based YouTuber in Taiwan\n・Founder of yuubuke\n・Expert in DeFi/GameFi/NFT \n・Founder of ReneVerse\n・Founder of Knife Guild Games\n・Co-founder of investment platform GameFi\n・Global Top 100 NFT Creator in partnership with Binance\n・Blockchain GameFi Lecturer"
        },
        {
          "name": "Pan Chih Chiang",
          "title": "MetaLion",
          "image": "/images/Team/37.jpg",
          "cover": "/images/Team/37.jpg",
          "content": "“International Numerologist”\n・IOPCA Certificate of Numerology, International Hypnotist\n・Lions Club International 300D2 District Director\n・Chairman of the Environmental Geography Development Committee\n・Lions Club International 300DR Club President"
        },
        {
          "name": "Michael Ou",
          "title": "MetaLion",
          "image": "/images/Team/38.jpg",
          "cover": "/images/Team/38.jpg",
          "content": "“The most reputablel cold wallet company in Taiwan”\n・CoolbBitX CEO"
        },
        {
          "name": "Ting-Yu Liu",
          "title": "MetaLion",
          "image": "/images/Team/39.jpg",
          "cover": "/images/Team/39.jpg",
          "content": "・General Manager of Shanton Sports"
        },
        {
          "name": "Jane Lin",
          "title": "MetaLion",
          "image": "/images/Team/40.jpg",
          "cover": "/images/Team/40.jpg",
          "content": "・CEO of Create Intelligent Co., Inc"
        },
        {
          "name": "Tiffany Lin",
          "title": "MetaLion",
          "image": "/images/Team/41.jpg",
          "cover": "/images/Team/41.jpg",
          "content": "・Founder of Lavender Cottage"
        },
        {
          "name": "Tsun-Huang Wang",
          "title": "MetaLion",
          "image": "/images/Team/42.jpg",
          "cover": "/images/Team/42.jpg",
          "content": "・Chairman of Lavender Cottage"
        },
        {
          "name": "Lien-Ti Bei",
          "title": "MetaLion",
          "image": "/images/Team/43.jpg",
          "cover": "/images/Team/43.jpg",
          "content": "・Consultant for Major Brands\n・Distinguished Professor, MBA Program, National Chengchi University"
        },
        {
          "name": "Owen Lo",
          "title": "MetaLion",
          "image": "/images/Team/44.jpg",
          "cover": "/images/Team/44.jpg",
          "content": "・Co-founder and CEO of Tagnology"
        },
        {
          "name": "Ellen Guan",
          "title": "MetaLion",
          "image": "/images/Team/45.jpg",
          "cover": "/images/Team/45.jpg",
          "content": "・Product Manager of RΞLAY, a new Web3/NFT venture incubating under Tagnology\n・App Store Team, Apple HQ in SV"
        },
        {
          "name": "Gene Huang",
          "title": "MetaLion",
          "image": "/images/Team/46.jpg",
          "cover": "/images/Team/46.jpg",
          "content": "・Co-founder of Demiverse Studio\n・Co-founder of Taiwan DAO"
        },
        {
          "name": "James Cheng",
          "title": "MetaLion",
          "image": "/images/Team/47.jpg",
          "cover": "/images/Team/47.jpg",
          "content": "・Founder of RichFish Investment\n・Director of Asia Blockchain Accelerator\n・Head of Investor Relations at ACE Crypto Assets Management Group\n・Executive Assistant to the Chairman of Era Group Chiu Fu-Sheng"
        },
        {
          "name": "Berry Liao",
          "title": "MetaLion",
          "image": "/images/Team/48.jpg",
          "cover": "/images/Team/48.jpg",
          "content": "・A Share Hotel & Muen Hotel Group General Manager\n・Cryptonews.com.tw Brand CEO\n・Self-Media Uncleberry01"
        },
        {
          "name": "Ni-Jyun Ji",
          "title": "MetaLion",
          "image": "/images/Team/49.jpg",
          "cover": "/images/Team/49.jpg",
          "content": "・Outsider Film Co., Ltd., Director"
        },
        {
          "name": "Fang-Ren Jheng",
          "title": "MetaLion",
          "image": "/images/Team/50.jpg",
          "cover": "/images/Team/50.jpg",
          "content": "・Outsider Film Co., Ltd.,  Producer"
        },
        {
          "name": "Susanoo Kao",
          "title": "MetaLion",
          "image": "/images/Team/51.jpg",
          "cover": "/images/Team/51.jpg",
          "content": "・Katana N’ Samurai Co-Founder\n・Tsukuyomi Infinite Co-Founder"
        },
        {
          "name": "Wei-Shun Liao",
          "title": "MetaLion",
          "image": "/images/Team/52.jpg",
          "cover": "/images/Team/52.jpg",
          "content": "・Super Taste, Editor-in-Chief"
        },
        {
          "name": "Cing-Cuan Zeng",
          "title": "MetaLion",
          "image": "/images/Team/53.jpg",
          "cover": "/images/Team/53.jpg",
          "content": "・Janfusun Resort Hotel, General manager"
        },
        {
          "name": "Yi-Sian You",
          "title": "MetaLion",
          "image": "/images/Team/54.jpg",
          "cover": "/images/Team/54.jpg",
          "content": "・Janfusun Resort Hotel, Chairman"
        }
        
      ],
      "banner": "\"Allow the limitless imagination of the metaverse to become the future!\nNew Future, new MetaStar.\"",
      "mint": {
        "title": "mint liondao nft",
        "description": "Allow the limitless imagination of the metaverse to become the future!\nNew Future, new MetaStar.",
        "price": "2",
        "photo": "/images/mint.png",
        "hint": "Demo：Integrate enterprise and product NFT"
      },
      "social": [
        { "icon": "Potatomedia", "link": "https://www.potatomedia.co/user/31b7801a-a463-46b6-8ebd-1df0d398f9c1/status" },
        { "icon": "Chaebol", "link": "https://www.chaebol.art/welcome" },
        { "icon": "Opensea", "link": "https://opensea.io/collection/lion-dao" },
        { "icon": "Discord", "link": "https://discord.gg/cy3HNnSt8b" },
        { "icon": "Twitter", "link": "https://twitter.com/liondaonft" },
        { "icon": "Instagram", "link": "https://www.instagram.com/liondaometa/" }
      ],
      "mint_button": "MINT LIONDAO NFT"
    },
    "footer": {
      "copyright": "・2022  LIONDAO・"
    }
  },
  "zh-TW": {
    "header": {
      "links": [
        { "to": "/?to=meta", "title": "元宇宙" },
        { "to": "/?to=team", "title": "團隊介紹" },
        { "to": "/?to=mint", "title": "鑄造" },
        { "to": "/?to=community", "title": "社群媒體" }
      ]
    },
    "homepage": {
      "side": "Company + Community + Blockchain + Metaverse",
      "heading": {
        "social": [
          { "icon": "Opensea", "link": "https://opensea.io/collection/lion-dao" },
          { "icon": "Discord", "link": "https://discord.gg/cy3HNnSt8b" },
          { "icon": "Twitter", "link": "https://twitter.com/liondaonft" },
          { "icon": "Instagram", "link": "https://www.instagram.com/liondaometa/" }
        ]
      },
      "intro":  [
        {
          "icon": "/images/icon-crawl.svg",
          "content": "\"LIONDAO NFT\n\n全台第一個元宇宙企業社群，持有者企業資源與含金量超高\n\n企業創新X元宇宙X數位轉型\n\n95%以上皆為CEO、高階經理人，橫跨數位與傳統產業，未來將有更多元宇宙與NFT發展交流，創造第一個元宇宙產業共識Social DAO，孵化未來具影響力的MetaStar\""
        },
        {
          "icon": "/images/icon-crawl.svg",
          "content": "\"成立企業元宇宙學院，推動產業跨域 AMA 交流與轉型，推動NFT落地應用，以及跨領域合作，將 NFT 落地應用極大化！建構企業社群共識與影響力\""
        },
        {
          "icon": "/images/icon-crawl.svg",
          "content": "\"Web 3.0 時代，產業面對市場皆要做品牌升級、數位轉型與產業新商業模式，社群共利、共識與共享，建立消費循環生態系，讓企業自媒體擁抱新商模，建立企業新媒體創作平台，一起飛行元宇宙\""
        }
      ],
      "story": [
        {
            "photo": "/images/story-1.png",
            "content": "這是什麼？"
        },
        {
            "photo": "/images/story-2.png",
            "content": "我聽到一個聲音在呼喚我們，\n那裡有一道門，\n夥伴們，讓我們一起去看看！"
        },
        {
            "photo": "/images/story-3.png",
            "content": "什麼...?\n發生了什麼事情？"
        },
        {
            "photo": "/images/story-4.png",
            "content": "我們來了，LIONDAO，這是個全新的世界！"
        }
      ],
      "team": [
        {
          "name": "Boss Lee",
          "title": "創辦人",
          "image": "/images/Team/1.jpg",
          "cover": "/images/Team/1.jpg",
          "content": "・企業公關危機處理與營銷戰略\n・首席顧問\n・台灣資深媒體人\n・媒體與影視產業轉型 策略投資顧問"
        },
        {
          "name": "Hans Chen",
          "title": "創辦人",
          "image": "/images/Team/2.jpg",
          "cover": "/images/Team/2.jpg",
          "content": "・果俐文創 CEO\n・跨域品牌輔導與區塊鏈策略應用首席顧問\n・業界有「品牌醫生」之稱"
        },
        {
          "name": "Lionel Chiang",
          "title": "創辦人",
          "image": "/images/Team/3.jpg",
          "cover": "/images/Team/3.jpg",
          "content": "・區塊鏈產業策略發展首席顧問\n・跨產業企業經營實業家"
        },
        {
          "name": "Kenneth Kao",
          "title": "創辦人",
          "image": "/images/Team/4.jpg",
          "cover": "/images/Team/4.jpg",
          "content": "・時事交易創辦人\n・唯心資本創辦人\n・NFT 佈道者"
        },
        {
          "name": "Ben Yen",
          "title": "團隊成員",
          "image": "/images/Team/5.jpg",
          "cover": "/images/Team/5.jpg",
          "content": "・品牌IP授權與通路發展"
        },
        {
          "name": "Carol Tzeng",
          "title": "團隊成員",
          "image": "/images/Team/6.jpg",
          "cover": "/images/Team/6.jpg",
          "content": "・國際社群與媒體經營"
        },
        {
          "name": "JenChiang Wang",
          "title": "團隊成員",
          "image": "/images/Team/7.jpg",
          "cover": "/images/Team/7.jpg",
          "content": "・大膽前衛的視覺藝術家"
        },
        {
          "name": "Anna Lin",
          "title": "團隊成員",
          "image": "/images/Team/20.jpg",
          "cover": "/images/Team/20.jpg",
          "content": "・東京著衣品牌執行長"
        },	
        {
          "name": "Alison Chen",
          "title": "團隊成員",
          "image": "/images/Team/8.jpg",
          "cover": "/images/Team/8.jpg",
          "content": "・幣圈與DC社群經營"
        },
        {
          "name": "HY Lin",
          "title": "團隊成員",
          "image": "/images/Team/9.jpg",
          "cover": "/images/Team/9.jpg",
          "content": "・量化交易操盤手\n・加密貨幣市場分析\n・整體經濟學觀察家"
        },	
        {
          "name": "Frank Fu",
          "title": "團隊成員",
          "image": "/images/Team/17.jpg",
          "cover": "/images/Team/17.jpg",
          "content": "・社群關係管理"
        },		
		    {
          "name": "James C.F. Huang",
          "title": "MetaLion",
          "image": "/images/Team/11.jpg",
          "cover": "/images/Team/11.jpg",
          "content": "・外貿協會 TAITRA 董事長"
        },
        {
          "name": "Simon Koh",
          "title": "MetaLion",
          "image": "/images/Team/12.jpg",
          "cover": "/images/Team/12.jpg",
          "content": "・AMT 亞太行銷數位轉型聯盟協會 創辦人\n・大數據熱品牌創新中心 創辦人\n・商業總會品牌加速中心 品牌長\n・王品集團 品牌總經理(12年)\n・奧美集團 業務企劃總監(12年)"
        },
        {
          "name": "Maclin",
          "title": "MetaLion",
          "image": "/images/Team/13.jpg",
          "cover": "/images/Team/13.jpg",
          "content": "・六星集團-羿晨機械股份有限公司 總經理\n・六羿精密科技股份有限公司 總經理\n・金瑞瑩工業股份有限公司 監察人\n・國際扶輪 3462 地區 2019-20年度地區總監"
        },
        {
          "name": "Eason Huang",
          "title": "MetaLion",
          "image": "/images/Team/14.jpg",
          "cover": "/images/Team/14.jpg",
          "content": "・晨間廚房餐飲有限公司共同創辦人暨總監\n・屏東縣大店長聯盟創會會長\n・台灣連鎖加盟促進協會第九屆常務理事\n・台灣連鎖加盟促進協會高雄分會第四屆會長"
        },
        {
          "name": "David Pan",
          "title": "MetaLion",
          "image": "/images/Team/15.jpg",
          "cover": "/images/Team/15.jpg",
          "content": "・ACE 王牌數位資產交易所創辦人\n・ABA 亞洲區塊鏈加速器創辦人\n・Lead Capital 新加坡領先資本創辦人"
        },
        {
          "name": "Toriii Studio",
          "title": "MetaLion",
          "image": "/images/Team/16.jpg",
          "cover": "/images/Team/16.jpg",
          "content": "・NFT 專業技術開發團隊\n・前、後端串接、Metadata 生成與智能合約客製化設計\n・提供 Low Gas 合約與安全審計技術支援"
        },
        {
          "name": "Michael Wang",
          "title": "MetaLion",
          "image": "/images/Team/18.jpg",
          "cover": "/images/Team/18.jpg",
          "content": "・建業法律事務所 主持律師/所長\n・全國商業總會會務顧問\n・內政部移民署法規諮詢委員\n・澎湖縣政府法律顧問\n・台灣電力公司研究計畫主持人"
        },
        {
          "name": "Gary Liu",
          "title": "MetaLion",
          "image": "/images/Team/19.jpg",
          "cover": "/images/Team/19.jpg",
          "content": "・星生技股份有限公司 \n・星媺診所創辦人"
        },
        {
          "name": "Rick Mao",
          "title": "MetaLion",
          "image": "/images/Team/21.jpg",
          "cover": "/images/Team/21.jpg",
          "content": "・新光三越 SKM Park 總經理(現職)\n・TOC Consulting Limited 招商副總裁/台灣總經理(現職)\n・香港希慎興業有限公司投資與開發部 總經理"
        },
        {
          "name": "Jennifer Shen",
          "title": "MetaLion",
          "image": "/images/Team/22.jpg",
          "cover": "/images/Team/22.jpg",
          "content": "「13座金鐘獎 紀錄保持人」\n・台灣大眾票選最具專業形象以及最受歡迎的新聞主播。\n・曾任中視晩間新聞主播達22年\n・「沈春華Life Show」「從台灣看全球」「沈春華新聞會客室」節目主持人\n・現任LiveABC互動英語交學集團 董事\n・現任IC之音「春風華語 聚焦台灣」主持人\n・現任Podcast 「沈春華我們脫殼Women’s Talk 」主持人"
        },
        {
          "name": "Henry Yen",
          "title": "MetaLion",
          "image": "/images/Team/23.jpg",
          "cover": "/images/Team/23.jpg",
          "content": "・Potato Media CEO/CTO"
        },
        {
          "name": "Henry Sun",
          "title": "MetaLion",
          "image": "/images/Team/24.jpg",
          "cover": "/images/Team/24.jpg",
          "content": "・肚肚創辦人&執行長"
        },
        {
          "name": "JianHong Guo",
          "title": "MetaLion",
          "image": "/images/Team/28.jpg",
          "cover": "/images/Team/28.jpg",
          "content": "台灣傳播界「電視皇帝」\n・映畫傳播事業股份有限公司 創辦人兼董事長"
        },
        {
          "name": "Unme Xie",
          "title": "MetaLion",
          "image": "/images/Team/30.jpg",
          "cover": "/images/Team/30.jpg",
          "content": "「MIT書包大王」\n・UNME兒童書包品牌創辦人"
        },
        {
          "name": "K.T.Hao",
          "title": "MetaLion",
          "image": "/images/Team/31.jpg",
          "cover": "/images/Team/31.jpg",
          "content": "「台灣與國際繪本界接軌的推手」\n・格林文化事業股份有限公司 發行人\n・城邦文化藝術基金會 董事長"
        },
        {
          "name": "Tony Huang",
          "title": "MetaLion",
          "image": "/images/Team/32.jpg",
          "cover": "/images/Team/32.jpg",
          "content": "「臺灣的一家唱片公司」\n・豐華唱片股份有限公司 董事長"
        },
        {
          "name": "Kunlian Wang",
          "title": "MetaLion",
          "image": "/images/Team/33.jpg",
          "cover": "/images/Team/33.jpg",
          "content": "「台灣日月潭紅茶第一品牌」\n・喝喝茶HOHOCHA 董事長"
        },
        {
          "name": "Ray Wang",
          "title": "MetaLion",
          "image": "/images/Team/34.jpg",
          "cover": "/images/Team/34.jpg",
          "content": "・淳紳(上櫃 2642) 股份有限公司 總經理\n ・明水生活科技股份有限公司 董事長\n ・南臺灣美國商會行政副會長"
        },
        {
          "name": "Andy Jiang",
          "title": "MetaLion",
          "image": "/images/Team/35.jpg",
          "cover": "/images/Team/35.jpg",
          "content": "・OOPS 創潮玩圈 創辦人"
        },
        {
          "name": "Dao Dao",
          "title": "MetaLion",
          "image": "/images/Team/36.jpg",
          "cover": "/images/Team/36.jpg",
          "content": "「幣圈女神」\n・台灣前10大知識型YouTuber\n・閱部客yuubuke創辦人\n・擅長 DeFi / GameFi / NFT\n・ReneVerse 創辦人\n・Knife Guild Games 創辦人\n・GameFi投資平台-共同創辦人\n・幣安全球前100大合作NFT創作者\n・區塊鏈GameFi講師"
        },
        {
          "name": "Pan Chih Chiang",
          "title": "MetaLion",
          "image": "/images/Team/37.jpg",
          "cover": "/images/Team/37.jpg",
          "content": "「國際命理大師」\n・IOPCA國際命理師、國際催眠師\n・國際獅子會300D2總監區理事\n・環境地理發展委員會主席\n・國際獅子會300D2區禮遇獅子會 會長"
        },
        {
          "name": "Michael Ou",
          "title": "MetaLion",
          "image": "/images/Team/38.jpg",
          "cover": "/images/Team/38.jpg",
          "content": "“The most reputablel cold wallet company in Taiwan”\n・CoolbBitX CEO"
        },
        {
          "name": "Ting-Yu Liu",
          "title": "MetaLion",
          "image": "/images/Team/39.jpg",
          "cover": "/images/Team/39.jpg",
          "content": "・享通運動用品 總經理"
        },
        {
          "name": "Jane Lin",
          "title": "MetaLion",
          "image": "/images/Team/40.jpg",
          "cover": "/images/Team/40.jpg",
          "content": "・創造智能科技股份有限公司 執行長"
        },
        {
          "name": "Tiffany Lin",
          "title": "MetaLion",
          "image": "/images/Team/41.jpg",
          "cover": "/images/Team/41.jpg",
          "content": "・薰衣草森林創辦人"
        },
        {
          "name": "Tsun-Huang Wang",
          "title": "MetaLion",
          "image": "/images/Team/42.jpg",
          "cover": "/images/Team/42.jpg",
          "content": "・薰衣草森林董事長"
        },
        {
          "name": "Lien-Ti Bei",
          "title": "MetaLion",
          "image": "/images/Team/43.jpg",
          "cover": "/images/Team/43.jpg",
          "content": "・大品牌導師\n・政治大學企業管理系特聘教授"
        },
        {
          "name": "Owen Lo",
          "title": "MetaLion",
          "image": "/images/Team/44.jpg",
          "cover": "/images/Team/44.jpg",
          "content": "・Co-founder and CEO of Tagnology"
        },
        {
          "name": "Ellen Guan",
          "title": "MetaLion",
          "image": "/images/Team/45.jpg",
          "cover": "/images/Team/45.jpg",
          "content": "・Tagnology 旗下孵化之 Web3 / NFT 新事業 RΞLAY 的產品負責人\n・美國矽谷 Apple 總部 App Store 團隊"
        },
        {
          "name": "Gene Huang",
          "title": "MetaLion",
          "image": "/images/Team/46.jpg",
          "cover": "/images/Team/46.jpg",
          "content": "・Co-founder of Demiverse Studio\n・Co-founder of Taiwan DAO"
        },
        {
          "name": "James Cheng",
          "title": "MetaLion",
          "image": "/images/Team/47.jpg",
          "cover": "/images/Team/47.jpg",
          "content": "・洰苙投資股份有限公司 創辦人\n・亞洲區塊鏈加速器 總監\n・ACE Crypto Assets Management Group 投資人關係長\n・年代集團邱復生 董事長特別助理"
        },
        {
          "name": "Berry Liao",
          "title": "MetaLion",
          "image": "/images/Team/48.jpg",
          "cover": "/images/Team/48.jpg",
          "content": "・艾玹爾飯店集團 /沐恩溫泉飯店總經理\n・區塊鏈新手網站-加密森林品牌執行長\n・自媒體 貝瑞大叔的加密貨幣世界"
        },
        {
          "name": "Ni-Jyun Ji",
          "title": "MetaLion",
          "image": "/images/Team/49.jpg",
          "cover": "/images/Team/49.jpg",
          "content": "・灰人文化傳媒有限公司總導演"
        },
        {
          "name": "Fang-Ren Jheng",
          "title": "MetaLion",
          "image": "/images/Team/50.jpg",
          "cover": "/images/Team/50.jpg",
          "content": "・灰人文化傳媒有限公司製作人"
        },
        {
          "name": "Susanoo Kao",
          "title": "MetaLion",
          "image": "/images/Team/51.jpg",
          "cover": "/images/Team/51.jpg",
          "content": "・Katana N’ Samurai 共同創辦人\n・無限月讀共同創辦人"
        },
        {
          "name": "Wei-Shun Liao",
          "title": "MetaLion",
          "image": "/images/Team/52.jpg",
          "cover": "/images/Team/52.jpg",
          "content": "・食尚玩家總編輯"
        },
        {
          "name": "Cing-Cuan Zeng",
          "title": "MetaLion",
          "image": "/images/Team/53.jpg",
          "cover": "/images/Team/53.jpg",
          "content": "・劍湖山渡假大飯店總經理"
        },
        {
          "name": "Yi-Sian You",
          "title": "MetaLion",
          "image": "/images/Team/54.jpg",
          "cover": "/images/Team/54.jpg",
          "content": "・劍湖山渡假大飯店董事長"
        }

      ],
      "banner": "\"讓元宇宙的無限想像，成為新未來！\"",
      "mint": {
        "title": "mint liondao nft",
        "description": "讓元宇宙的無限想像，成為新未來！\nNew Future, new MetaStar.",
        "price": "2",
        "photo": "/images/mint.png",
        "hint": "Demo：Integrate enterprise and product NFT"
      },
      "social": [
        { "icon": "Potatomedia", "link": "https://www.potatomedia.co/user/31b7801a-a463-46b6-8ebd-1df0d398f9c1/status" },
        { "icon": "Chaebol", "link": "https://www.chaebol.art/welcome" },
        { "icon": "Opensea", "link": "https://opensea.io/collection/lion-dao" },
        { "icon": "Discord", "link": "https://discord.gg/cy3HNnSt8b" },
        { "icon": "Twitter", "link": "https://twitter.com/liondaonft" },
        { "icon": "Instagram", "link": "https://www.instagram.com/liondaometa/" }
      ],
      "mint_button": "MINT LIONDAO NFT"
    },
    "footer": {
      "copyright": "・2022  LIONDAO・"
    }
  }
  
}